League of Legends Match Analysis
…
Fisher Test - Build Optimizer

type here

    Fisher's Exact Test for Count Data

data:  test_table
p-value = 0.1193
alternative hypothesis: two.sided

# A tibble: 35 × 3
    item games winrate
   <int> <int>   <dbl>
 1  3171    74   0.797
 2  3041    61   0.787
 3  2055    27   0.778
 4  3175   112   0.741
 5  2421    35   0.714
 6  3137    36   0.694
 7  3135    63   0.683
 8  3111    53   0.679
 9  4630    56   0.679
10  3108    51   0.667
# ℹ 25 more rows
…
